^C:\USERS\FEAN\DROPBOX\FEANWORK\FEANWORK\DEBUG\ANIMATIONMODULE.OBJ|C:\USERS\FEAN\DROPBOX\FEANWORK\FEANWORK\DEBUG\ANIMATIONPARSER.OBJ|C:\USERS\FEAN\DROPBOX\FEANWORK\FEANWORK\DEBUG\CAMERA.OBJ|C:\USERS\FEAN\DROPBOX\FEANWORK\FEANWORK\DEBUG\CONFIGPARSER.OBJ|C:\USERS\FEAN\DROPBOX\FEANWORK\FEANWORK\DEBUG\CONTAINER.OBJ|C:\USERS\FEAN\DROPBOX\FEANWORK\FEANWORK\DEBUG\CONTROLBASE.OBJ|C:\USERS\FEAN\DROPBOX\FEANWORK\FEANWORK\DEBUG\DIRECTORY.OBJ|C:\USERS\FEAN\DROPBOX\FEANWORK\FEANWORK\DEBUG\DROPCONTROL.OBJ|C:\USERS\FEAN\DROPBOX\FEANWORK\FEANWORK\DEBUG\EMITTERMODULE.OBJ|C:\USERS\FEAN\DROPBOX\FEANWORK\FEANWORK\DEBUG\ENTITY.OBJ|C:\USERS\FEAN\DROPBOX\FEANWORK\FEANWORK\DEBUG\EVENTLISTENER.OBJ|C:\USERS\FEAN\DROPBOX\FEANWORK\FEANWORK\DEBUG\FEANRANDOM.OBJ|C:\USERS\FEAN\DROPBOX\FEANWORK\FEANWORK\DEBUG\FEANWORK.OBJ|C:\USERS\FEAN\DROPBOX\FEANWORK\FEANWORK\DEBUG\FIELDCONTROL.OBJ|C:\USERS\FEAN\DROPBOX\FEANWORK\FEANWORK\DEBUG\GAMECONSOLE.OBJ|C:\USERS\FEAN\DROPBOX\FEANWORK\FEANWORK\DEBUG\GRID.OBJ|C:\USERS\FEAN\DROPBOX\FEANWORK\FEANWORK\DEBUG\INPUTHANDLER.OBJ|C:\USERS\FEAN\DROPBOX\FEANWORK\FEANWORK\DEBUG\INTELLIGENCEMODULE.OBJ|C:\USERS\FEAN\DROPBOX\FEANWORK\FEANWORK\DEBUG\INTERFACECONTROLLER.OBJ|C:\USERS\FEAN\DROPBOX\FEANWORK\FEANWORK\DEBUG\LABELCONTROL.OBJ|C:\USERS\FEAN\DROPBOX\FEANWORK\FEANWORK\DEBUG\LAYER.OBJ|C:\USERS\FEAN\DROPBOX\FEANWORK\FEANWORK\DEBUG\LEVELPARSER.OBJ|C:\USERS\FEAN\DROPBOX\FEANWORK\FEANWORK\DEBUG\LIGHT.OBJ|C:\USERS\FEAN\DROPBOX\FEANWORK\FEANWORK\DEBUG\LIGHTMANAGER.OBJ|C:\USERS\FEAN\DROPBOX\FEANWORK\FEANWORK\DEBUG\MEMORYTRACKER.OBJ|C:\USERS\FEAN\DROPBOX\FEANWORK\FEANWORK\DEBUG\MODULE.OBJ|C:\USERS\FEAN\DROPBOX\FEANWORK\FEANWORK\DEBUG\NETWORK.OBJ|C:\USERS\FEAN\DROPBOX\FEANWORK\FEANWORK\DEBUG\PHYSICSMODULE.OBJ|C:\USERS\FEAN\DROPBOX\FEANWORK\FEANWORK\DEBUG\POINTLIGHT.OBJ|C:\USERS\FEAN\DROPBOX\FEANWORK\FEANWORK\DEBUG\PREFABPARSER.OBJ|C:\USERS\FEAN\DROPBOX\FEANWORK\FEANWORK\DEBUG\PROGRESSCONTROL.OBJ|C:\USERS\FEAN\DROPBOX\FEANWORK\FEANWORK\DEBUG\QUADTREE.OBJ|C:\USERS\FEAN\DROPBOX\FEANWORK\FEANWORK\DEBUG\RENDERMODULE.OBJ|C:\USERS\FEAN\DROPBOX\FEANWORK\FEANWORK\DEBUG\RESOURCECACHE.OBJ|C:\USERS\FEAN\DROPBOX\FEANWORK\FEANWORK\DEBUG\SCENE.OBJ|C:\USERS\FEAN\DROPBOX\FEANWORK\FEANWORK\DEBUG\SCENEMANAGER.OBJ|C:\USERS\FEAN\DROPBOX\FEANWORK\FEANWORK\DEBUG\SCRIPTINGPARSER.OBJ|C:\USERS\FEAN\DROPBOX\FEANWORK\FEANWORK\DEBUG\SCROLLCONTROL.OBJ|C:\USERS\FEAN\DROPBOX\FEANWORK\FEANWORK\DEBUG\SELECTIONCONTROL.OBJ|C:\USERS\FEAN\DROPBOX\FEANWORK\FEANWORK\DEBUG\SOUNDMANAGER.OBJ|C:\USERS\FEAN\DROPBOX\FEANWORK\FEANWORK\DEBUG\SOUNDMODULE.OBJ|C:\USERS\FEAN\DROPBOX\FEANWORK\FEANWORK\DEBUG\SPATIALBASE.OBJ|C:\USERS\FEAN\DROPBOX\FEANWORK\FEANWORK\DEBUG\TOGGLECONTROL.OBJ|C:\USERS\FEAN\DROPBOX\FEANWORK\FEANWORK\DEBUG\TOOLTIPCONTROL.OBJ|C:\USERS\FEAN\DROPBOX\FEANWORK\FEANWORK\DEBUG\VECTORIAL.OBJ|C:\USERS\FEAN\DROPBOX\FEANWORK\FEANWORK\DEBUG\WATER.OBJ
C:\USERS\FEAN\DROPBOX\FEANWORK\BIN\DEBUG\FEANWORK-D.ILK
C:\USERS\FEAN\DROPBOX\FEANWORK\BIN\DEBUG\FEANWORK-D.EXE
C:\USERS\FEAN\DROPBOX\FEANWORK\BIN\DEBUG\FEANWORK-D.PDB
