^C:\USERS\JAMIE MASSEY\DROPBOX\FEANWORK\SRC\CAMERA.CPP|C:\USERS\JAMIE MASSEY\DROPBOX\FEANWORK\SRC\DIRECTORY.CPP|C:\USERS\JAMIE MASSEY\DROPBOX\FEANWORK\SRC\ENTITY.CPP|C:\USERS\JAMIE MASSEY\DROPBOX\FEANWORK\SRC\EVENTLISTENER.CPP|C:\USERS\JAMIE MASSEY\DROPBOX\FEANWORK\SRC\FEANWORK.CPP|C:\USERS\JAMIE MASSEY\DROPBOX\FEANWORK\SRC\GAMECONSOLE.CPP|C:\USERS\JAMIE MASSEY\DROPBOX\FEANWORK\SRC\INPUTHANDLER.CPP|C:\USERS\JAMIE MASSEY\DROPBOX\FEANWORK\SRC\INTERFACE\CONTAINER.CPP|C:\USERS\JAMIE MASSEY\DROPBOX\FEANWORK\SRC\INTERFACE\CONTROLBASE.CPP|C:\USERS\JAMIE MASSEY\DROPBOX\FEANWORK\SRC\INTERFACE\DROPCONTROL.CPP|C:\USERS\JAMIE MASSEY\DROPBOX\FEANWORK\SRC\INTERFACE\FIELDCONTROL.CPP|C:\USERS\JAMIE MASSEY\DROPBOX\FEANWORK\SRC\INTERFACE\INTERFACECONTROLLER.CPP|C:\USERS\JAMIE MASSEY\DROPBOX\FEANWORK\SRC\INTERFACE\LABELCONTROL.CPP|C:\USERS\JAMIE MASSEY\DROPBOX\FEANWORK\SRC\INTERFACE\PROGRESSCONTROL.CPP|C:\USERS\JAMIE MASSEY\DROPBOX\FEANWORK\SRC\INTERFACE\SCROLLCONTROL.CPP|C:\USERS\JAMIE MASSEY\DROPBOX\FEANWORK\SRC\INTERFACE\SELECTIONCONTROL.CPP|C:\USERS\JAMIE MASSEY\DROPBOX\FEANWORK\SRC\INTERFACE\TOGGLECONTROL.CPP|C:\USERS\JAMIE MASSEY\DROPBOX\FEANWORK\SRC\INTERFACE\TOOLTIPCONTROL.CPP|C:\USERS\JAMIE MASSEY\DROPBOX\FEANWORK\SRC\LAYER.CPP|C:\USERS\JAMIE MASSEY\DROPBOX\FEANWORK\SRC\LIGHTING\LIGHT.CPP|C:\USERS\JAMIE MASSEY\DROPBOX\FEANWORK\SRC\LIGHTING\LIGHTMANAGER.CPP|C:\USERS\JAMIE MASSEY\DROPBOX\FEANWORK\SRC\LIGHTING\POINTLIGHT.CPP|C:\USERS\JAMIE MASSEY\DROPBOX\FEANWORK\SRC\MODULE\ANIMATIONMODULE.CPP|C:\USERS\JAMIE MASSEY\DROPBOX\FEANWORK\SRC\MODULE\EMITTERMODULE.CPP|C:\USERS\JAMIE MASSEY\DROPBOX\FEANWORK\SRC\MODULE\INTELLIGENCEMODULE.CPP|C:\USERS\JAMIE MASSEY\DROPBOX\FEANWORK\SRC\MODULE\MODULE.CPP|C:\USERS\JAMIE MASSEY\DROPBOX\FEANWORK\SRC\MODULE\PHYSICSMODULE.CPP|C:\USERS\JAMIE MASSEY\DROPBOX\FEANWORK\SRC\MODULE\RENDERMODULE.CPP|C:\USERS\JAMIE MASSEY\DROPBOX\FEANWORK\SRC\MODULE\SOUNDMODULE.CPP|C:\USERS\JAMIE MASSEY\DROPBOX\FEANWORK\SRC\PARSER\ANIMATIONPARSER.CPP|C:\USERS\JAMIE MASSEY\DROPBOX\FEANWORK\SRC\PARSER\CONFIGPARSER.CPP|C:\USERS\JAMIE MASSEY\DROPBOX\FEANWORK\SRC\PARSER\LEVELPARSER.CPP|C:\USERS\JAMIE MASSEY\DROPBOX\FEANWORK\SRC\PARSER\PREFABPARSER.CPP|C:\USERS\JAMIE MASSEY\DROPBOX\FEANWORK\SRC\RESOURCECACHE.CPP|C:\USERS\JAMIE MASSEY\DROPBOX\FEANWORK\SRC\SCENE.CPP|C:\USERS\JAMIE MASSEY\DROPBOX\FEANWORK\SRC\SCENEMANAGER.CPP|C:\USERS\JAMIE MASSEY\DROPBOX\FEANWORK\SRC\SOUNDMANAGER.CPP|C:\USERS\JAMIE MASSEY\DROPBOX\FEANWORK\SRC\SPATIAL\GRID.CPP|C:\USERS\JAMIE MASSEY\DROPBOX\FEANWORK\SRC\SPATIAL\QUADTREE.CPP|C:\USERS\JAMIE MASSEY\DROPBOX\FEANWORK\SRC\SPATIAL\SPATIALBASE.CPP|C:\USERS\JAMIE MASSEY\DROPBOX\FEANWORK\SRC\UTIL\FEANRANDOM.CPP|C:\USERS\JAMIE MASSEY\DROPBOX\FEANWORK\SRC\UTIL\MEMORYTRACKER.CPP|C:\USERS\JAMIE MASSEY\DROPBOX\FEANWORK\SRC\UTIL\VECTORIAL.CPP
C:\USERS\JAMIE MASSEY\DROPBOX\FEANWORK\FEANWORK\RELEASE\ENTITY.OBJ
C:\USERS\JAMIE MASSEY\DROPBOX\FEANWORK\FEANWORK\RELEASE\LABELCONTROL.OBJ
C:\USERS\JAMIE MASSEY\DROPBOX\FEANWORK\FEANWORK\RELEASE\TOOLTIPCONTROL.OBJ
C:\USERS\JAMIE MASSEY\DROPBOX\FEANWORK\FEANWORK\RELEASE\RENDERMODULE.OBJ
C:\USERS\JAMIE MASSEY\DROPBOX\FEANWORK\FEANWORK\RELEASE\SCENE.OBJ
C:\USERS\JAMIE MASSEY\DROPBOX\FEANWORK\FEANWORK\RELEASE\VECTORIAL.OBJ
C:\USERS\JAMIE MASSEY\DROPBOX\FEANWORK\FEANWORK\RELEASE\CONTAINER.OBJ
C:\USERS\JAMIE MASSEY\DROPBOX\FEANWORK\FEANWORK\RELEASE\SELECTIONCONTROL.OBJ
C:\USERS\JAMIE MASSEY\DROPBOX\FEANWORK\FEANWORK\RELEASE\INTELLIGENCEMODULE.OBJ
C:\USERS\JAMIE MASSEY\DROPBOX\FEANWORK\FEANWORK\RELEASE\GRID.OBJ
C:\USERS\JAMIE MASSEY\DROPBOX\FEANWORK\FEANWORK\RELEASE\FEANWORK.OBJ
C:\USERS\JAMIE MASSEY\DROPBOX\FEANWORK\FEANWORK\RELEASE\SCROLLCONTROL.OBJ
C:\USERS\JAMIE MASSEY\DROPBOX\FEANWORK\FEANWORK\RELEASE\LIGHT.OBJ
C:\USERS\JAMIE MASSEY\DROPBOX\FEANWORK\FEANWORK\RELEASE\EMITTERMODULE.OBJ
C:\USERS\JAMIE MASSEY\DROPBOX\FEANWORK\FEANWORK\RELEASE\PREFABPARSER.OBJ
C:\USERS\JAMIE MASSEY\DROPBOX\FEANWORK\FEANWORK\RELEASE\FEANRANDOM.OBJ
C:\USERS\JAMIE MASSEY\DROPBOX\FEANWORK\FEANWORK\RELEASE\EVENTLISTENER.OBJ
C:\USERS\JAMIE MASSEY\DROPBOX\FEANWORK\FEANWORK\RELEASE\CONTROLBASE.OBJ
C:\USERS\JAMIE MASSEY\DROPBOX\FEANWORK\FEANWORK\RELEASE\TOGGLECONTROL.OBJ
C:\USERS\JAMIE MASSEY\DROPBOX\FEANWORK\FEANWORK\RELEASE\MODULE.OBJ
C:\USERS\JAMIE MASSEY\DROPBOX\FEANWORK\FEANWORK\RELEASE\LEVELPARSER.OBJ
C:\USERS\JAMIE MASSEY\DROPBOX\FEANWORK\FEANWORK\RELEASE\SPATIALBASE.OBJ
C:\USERS\JAMIE MASSEY\DROPBOX\FEANWORK\FEANWORK\RELEASE\GAMECONSOLE.OBJ
C:\USERS\JAMIE MASSEY\DROPBOX\FEANWORK\FEANWORK\RELEASE\FIELDCONTROL.OBJ
C:\USERS\JAMIE MASSEY\DROPBOX\FEANWORK\FEANWORK\RELEASE\LAYER.OBJ
C:\USERS\JAMIE MASSEY\DROPBOX\FEANWORK\FEANWORK\RELEASE\PHYSICSMODULE.OBJ
C:\USERS\JAMIE MASSEY\DROPBOX\FEANWORK\FEANWORK\RELEASE\RESOURCECACHE.OBJ
C:\USERS\JAMIE MASSEY\DROPBOX\FEANWORK\FEANWORK\RELEASE\MEMORYTRACKER.OBJ
C:\USERS\JAMIE MASSEY\DROPBOX\FEANWORK\FEANWORK\RELEASE\DIRECTORY.OBJ
C:\USERS\JAMIE MASSEY\DROPBOX\FEANWORK\FEANWORK\RELEASE\DROPCONTROL.OBJ
C:\USERS\JAMIE MASSEY\DROPBOX\FEANWORK\FEANWORK\RELEASE\LIGHTMANAGER.OBJ
C:\USERS\JAMIE MASSEY\DROPBOX\FEANWORK\FEANWORK\RELEASE\ANIMATIONPARSER.OBJ
C:\USERS\JAMIE MASSEY\DROPBOX\FEANWORK\FEANWORK\RELEASE\SOUNDMANAGER.OBJ
C:\USERS\JAMIE MASSEY\DROPBOX\FEANWORK\FEANWORK\RELEASE\INPUTHANDLER.OBJ
C:\USERS\JAMIE MASSEY\DROPBOX\FEANWORK\FEANWORK\RELEASE\PROGRESSCONTROL.OBJ
C:\USERS\JAMIE MASSEY\DROPBOX\FEANWORK\FEANWORK\RELEASE\ANIMATIONMODULE.OBJ
C:\USERS\JAMIE MASSEY\DROPBOX\FEANWORK\FEANWORK\RELEASE\CONFIGPARSER.OBJ
C:\USERS\JAMIE MASSEY\DROPBOX\FEANWORK\FEANWORK\RELEASE\QUADTREE.OBJ
C:\USERS\JAMIE MASSEY\DROPBOX\FEANWORK\FEANWORK\RELEASE\CAMERA.OBJ
C:\USERS\JAMIE MASSEY\DROPBOX\FEANWORK\FEANWORK\RELEASE\INTERFACECONTROLLER.OBJ
C:\USERS\JAMIE MASSEY\DROPBOX\FEANWORK\FEANWORK\RELEASE\POINTLIGHT.OBJ
C:\USERS\JAMIE MASSEY\DROPBOX\FEANWORK\FEANWORK\RELEASE\SOUNDMODULE.OBJ
C:\USERS\JAMIE MASSEY\DROPBOX\FEANWORK\FEANWORK\RELEASE\SCENEMANAGER.OBJ
^C:\USERS\JAMIE MASSEY\DROPBOX\FEANWORK\SRC\CAMERA.CPP
C:\USERS\JAMIE MASSEY\DROPBOX\FEANWORK\FEANWORK\RELEASE\VC120.PDB
^C:\USERS\JAMIE MASSEY\DROPBOX\FEANWORK\SRC\DIRECTORY.CPP
C:\USERS\JAMIE MASSEY\DROPBOX\FEANWORK\FEANWORK\RELEASE\VC120.PDB
^C:\USERS\JAMIE MASSEY\DROPBOX\FEANWORK\SRC\ENTITY.CPP
C:\USERS\JAMIE MASSEY\DROPBOX\FEANWORK\FEANWORK\RELEASE\VC120.PDB
^C:\USERS\JAMIE MASSEY\DROPBOX\FEANWORK\SRC\EVENTLISTENER.CPP
C:\USERS\JAMIE MASSEY\DROPBOX\FEANWORK\FEANWORK\RELEASE\VC120.PDB
^C:\USERS\JAMIE MASSEY\DROPBOX\FEANWORK\SRC\FEANWORK.CPP
C:\USERS\JAMIE MASSEY\DROPBOX\FEANWORK\FEANWORK\RELEASE\VC120.PDB
^C:\USERS\JAMIE MASSEY\DROPBOX\FEANWORK\SRC\GAMECONSOLE.CPP
C:\USERS\JAMIE MASSEY\DROPBOX\FEANWORK\FEANWORK\RELEASE\VC120.PDB
^C:\USERS\JAMIE MASSEY\DROPBOX\FEANWORK\SRC\INPUTHANDLER.CPP
C:\USERS\JAMIE MASSEY\DROPBOX\FEANWORK\FEANWORK\RELEASE\VC120.PDB
^C:\USERS\JAMIE MASSEY\DROPBOX\FEANWORK\SRC\INTERFACE\CONTAINER.CPP
C:\USERS\JAMIE MASSEY\DROPBOX\FEANWORK\FEANWORK\RELEASE\VC120.PDB
^C:\USERS\JAMIE MASSEY\DROPBOX\FEANWORK\SRC\INTERFACE\CONTROLBASE.CPP
C:\USERS\JAMIE MASSEY\DROPBOX\FEANWORK\FEANWORK\RELEASE\VC120.PDB
^C:\USERS\JAMIE MASSEY\DROPBOX\FEANWORK\SRC\INTERFACE\DROPCONTROL.CPP
C:\USERS\JAMIE MASSEY\DROPBOX\FEANWORK\FEANWORK\RELEASE\VC120.PDB
^C:\USERS\JAMIE MASSEY\DROPBOX\FEANWORK\SRC\INTERFACE\FIELDCONTROL.CPP
C:\USERS\JAMIE MASSEY\DROPBOX\FEANWORK\FEANWORK\RELEASE\VC120.PDB
^C:\USERS\JAMIE MASSEY\DROPBOX\FEANWORK\SRC\INTERFACE\INTERFACECONTROLLER.CPP
C:\USERS\JAMIE MASSEY\DROPBOX\FEANWORK\FEANWORK\RELEASE\VC120.PDB
^C:\USERS\JAMIE MASSEY\DROPBOX\FEANWORK\SRC\INTERFACE\LABELCONTROL.CPP
C:\USERS\JAMIE MASSEY\DROPBOX\FEANWORK\FEANWORK\RELEASE\VC120.PDB
^C:\USERS\JAMIE MASSEY\DROPBOX\FEANWORK\SRC\INTERFACE\PROGRESSCONTROL.CPP
C:\USERS\JAMIE MASSEY\DROPBOX\FEANWORK\FEANWORK\RELEASE\VC120.PDB
^C:\USERS\JAMIE MASSEY\DROPBOX\FEANWORK\SRC\INTERFACE\SCROLLCONTROL.CPP
C:\USERS\JAMIE MASSEY\DROPBOX\FEANWORK\FEANWORK\RELEASE\VC120.PDB
^C:\USERS\JAMIE MASSEY\DROPBOX\FEANWORK\SRC\INTERFACE\SELECTIONCONTROL.CPP
C:\USERS\JAMIE MASSEY\DROPBOX\FEANWORK\FEANWORK\RELEASE\VC120.PDB
^C:\USERS\JAMIE MASSEY\DROPBOX\FEANWORK\SRC\INTERFACE\TOGGLECONTROL.CPP
C:\USERS\JAMIE MASSEY\DROPBOX\FEANWORK\FEANWORK\RELEASE\VC120.PDB
^C:\USERS\JAMIE MASSEY\DROPBOX\FEANWORK\SRC\INTERFACE\TOOLTIPCONTROL.CPP
C:\USERS\JAMIE MASSEY\DROPBOX\FEANWORK\FEANWORK\RELEASE\VC120.PDB
^C:\USERS\JAMIE MASSEY\DROPBOX\FEANWORK\SRC\LAYER.CPP
C:\USERS\JAMIE MASSEY\DROPBOX\FEANWORK\FEANWORK\RELEASE\VC120.PDB
^C:\USERS\JAMIE MASSEY\DROPBOX\FEANWORK\SRC\LIGHTING\LIGHT.CPP
C:\USERS\JAMIE MASSEY\DROPBOX\FEANWORK\FEANWORK\RELEASE\VC120.PDB
^C:\USERS\JAMIE MASSEY\DROPBOX\FEANWORK\SRC\LIGHTING\LIGHTMANAGER.CPP
C:\USERS\JAMIE MASSEY\DROPBOX\FEANWORK\FEANWORK\RELEASE\VC120.PDB
^C:\USERS\JAMIE MASSEY\DROPBOX\FEANWORK\SRC\LIGHTING\POINTLIGHT.CPP
C:\USERS\JAMIE MASSEY\DROPBOX\FEANWORK\FEANWORK\RELEASE\VC120.PDB
^C:\USERS\JAMIE MASSEY\DROPBOX\FEANWORK\SRC\MODULE\ANIMATIONMODULE.CPP
C:\USERS\JAMIE MASSEY\DROPBOX\FEANWORK\FEANWORK\RELEASE\VC120.PDB
^C:\USERS\JAMIE MASSEY\DROPBOX\FEANWORK\SRC\MODULE\EMITTERMODULE.CPP
C:\USERS\JAMIE MASSEY\DROPBOX\FEANWORK\FEANWORK\RELEASE\VC120.PDB
^C:\USERS\JAMIE MASSEY\DROPBOX\FEANWORK\SRC\MODULE\INTELLIGENCEMODULE.CPP
C:\USERS\JAMIE MASSEY\DROPBOX\FEANWORK\FEANWORK\RELEASE\VC120.PDB
^C:\USERS\JAMIE MASSEY\DROPBOX\FEANWORK\SRC\MODULE\MODULE.CPP
C:\USERS\JAMIE MASSEY\DROPBOX\FEANWORK\FEANWORK\RELEASE\VC120.PDB
^C:\USERS\JAMIE MASSEY\DROPBOX\FEANWORK\SRC\MODULE\PHYSICSMODULE.CPP
C:\USERS\JAMIE MASSEY\DROPBOX\FEANWORK\FEANWORK\RELEASE\VC120.PDB
^C:\USERS\JAMIE MASSEY\DROPBOX\FEANWORK\SRC\MODULE\RENDERMODULE.CPP
C:\USERS\JAMIE MASSEY\DROPBOX\FEANWORK\FEANWORK\RELEASE\VC120.PDB
^C:\USERS\JAMIE MASSEY\DROPBOX\FEANWORK\SRC\MODULE\SOUNDMODULE.CPP
C:\USERS\JAMIE MASSEY\DROPBOX\FEANWORK\FEANWORK\RELEASE\VC120.PDB
^C:\USERS\JAMIE MASSEY\DROPBOX\FEANWORK\SRC\PARSER\ANIMATIONPARSER.CPP
C:\USERS\JAMIE MASSEY\DROPBOX\FEANWORK\FEANWORK\RELEASE\VC120.PDB
^C:\USERS\JAMIE MASSEY\DROPBOX\FEANWORK\SRC\PARSER\CONFIGPARSER.CPP
C:\USERS\JAMIE MASSEY\DROPBOX\FEANWORK\FEANWORK\RELEASE\VC120.PDB
^C:\USERS\JAMIE MASSEY\DROPBOX\FEANWORK\SRC\PARSER\LEVELPARSER.CPP
C:\USERS\JAMIE MASSEY\DROPBOX\FEANWORK\FEANWORK\RELEASE\VC120.PDB
^C:\USERS\JAMIE MASSEY\DROPBOX\FEANWORK\SRC\PARSER\PREFABPARSER.CPP
C:\USERS\JAMIE MASSEY\DROPBOX\FEANWORK\FEANWORK\RELEASE\VC120.PDB
^C:\USERS\JAMIE MASSEY\DROPBOX\FEANWORK\SRC\RESOURCECACHE.CPP
C:\USERS\JAMIE MASSEY\DROPBOX\FEANWORK\FEANWORK\RELEASE\VC120.PDB
^C:\USERS\JAMIE MASSEY\DROPBOX\FEANWORK\SRC\SCENE.CPP
C:\USERS\JAMIE MASSEY\DROPBOX\FEANWORK\FEANWORK\RELEASE\VC120.PDB
^C:\USERS\JAMIE MASSEY\DROPBOX\FEANWORK\SRC\SCENEMANAGER.CPP
C:\USERS\JAMIE MASSEY\DROPBOX\FEANWORK\FEANWORK\RELEASE\VC120.PDB
^C:\USERS\JAMIE MASSEY\DROPBOX\FEANWORK\SRC\SOUNDMANAGER.CPP
C:\USERS\JAMIE MASSEY\DROPBOX\FEANWORK\FEANWORK\RELEASE\VC120.PDB
^C:\USERS\JAMIE MASSEY\DROPBOX\FEANWORK\SRC\SPATIAL\GRID.CPP
C:\USERS\JAMIE MASSEY\DROPBOX\FEANWORK\FEANWORK\RELEASE\VC120.PDB
^C:\USERS\JAMIE MASSEY\DROPBOX\FEANWORK\SRC\SPATIAL\QUADTREE.CPP
C:\USERS\JAMIE MASSEY\DROPBOX\FEANWORK\FEANWORK\RELEASE\VC120.PDB
^C:\USERS\JAMIE MASSEY\DROPBOX\FEANWORK\SRC\SPATIAL\SPATIALBASE.CPP
C:\USERS\JAMIE MASSEY\DROPBOX\FEANWORK\FEANWORK\RELEASE\VC120.PDB
^C:\USERS\JAMIE MASSEY\DROPBOX\FEANWORK\SRC\UTIL\FEANRANDOM.CPP
C:\USERS\JAMIE MASSEY\DROPBOX\FEANWORK\FEANWORK\RELEASE\VC120.PDB
^C:\USERS\JAMIE MASSEY\DROPBOX\FEANWORK\SRC\UTIL\MEMORYTRACKER.CPP
C:\USERS\JAMIE MASSEY\DROPBOX\FEANWORK\FEANWORK\RELEASE\VC120.PDB
^C:\USERS\JAMIE MASSEY\DROPBOX\FEANWORK\SRC\UTIL\VECTORIAL.CPP
C:\USERS\JAMIE MASSEY\DROPBOX\FEANWORK\FEANWORK\RELEASE\VC120.PDB
