^C:\USERS\JAMIE MASSEY\DROPBOX\FEANWORK\FEANTEST\MAIN.CPP
C:\USERS\JAMIE MASSEY\DROPBOX\FEANWORK\FEANTEST\DEBUG\VC120.PDB
C:\USERS\JAMIE MASSEY\DROPBOX\FEANWORK\FEANTEST\DEBUG\VC120.IDB
C:\USERS\JAMIE MASSEY\DROPBOX\FEANWORK\FEANTEST\DEBUG\MAIN.OBJ
