^C:\Users\Fean-Dev\Dropbox\Feanwork\Feanwork\Feanwork.vcxproj
C:\Users\Fean-Dev\Dropbox\Feanwork\bin\Debug\feanwork-d.lib
C:\Users\Fean-Dev\Dropbox\Feanwork\bin\Debug\feanwork-d.exp
^C:\Users\Fean-Dev\Dropbox\Feanwork\Feanwork\Feanwork.vcxproj
C:\Users\Fean-Dev\Dropbox\Feanwork\bin\Debug\feanwork-d.lib
C:\Users\Fean-Dev\Dropbox\Feanwork\bin\Debug\feanwork-d.exp
^C:\Users\Fean-Dev\Dropbox\Feanwork\Feanwork\Feanwork.vcxproj
C:\Users\Fean-Dev\Dropbox\Feanwork\bin\Debug\feanwork-d.lib
C:\Users\Fean-Dev\Dropbox\Feanwork\bin\Debug\feanwork-d.exp
^C:\Users\Fean-Dev\Dropbox\Feanwork\Feanwork\Feanwork.vcxproj
C:\Users\Fean-Dev\Dropbox\Feanwork\bin\Debug\feanwork-d.lib
C:\Users\Fean-Dev\Dropbox\Feanwork\bin\Debug\feanwork-d.exp
^C:\Users\Fean-Dev\Dropbox\Feanwork\Feanwork\Feanwork.vcxproj
C:\Users\Fean-Dev\Dropbox\Feanwork\bin\Debug\feanwork-d.lib
C:\Users\Fean-Dev\Dropbox\Feanwork\bin\Debug\feanwork-d.exp
^C:\Users\Fean-Dev\Dropbox\Feanwork\Feanwork\Feanwork.vcxproj
C:\Users\Fean-Dev\Dropbox\Feanwork\bin\Debug\feanwork-d.lib
C:\Users\Fean-Dev\Dropbox\Feanwork\bin\Debug\feanwork-d.exp
^C:\Users\Fean-Dev\Dropbox\Feanwork\Feanwork\Feanwork.vcxproj
C:\Users\Fean-Dev\Dropbox\Feanwork\bin\Debug\feanwork-d.lib
C:\Users\Fean-Dev\Dropbox\Feanwork\bin\Debug\feanwork-d.exp
^C:\Users\Fean-Dev\Dropbox\Feanwork\Feanwork\Feanwork.vcxproj
C:\Users\Fean-Dev\Dropbox\Feanwork\bin\Debug\feanwork-d.lib
C:\Users\Fean-Dev\Dropbox\Feanwork\bin\Debug\feanwork-d.exp
