^C:\USERS\FEAN-DEV\DROPBOX\FEANWORK\FEANWORK\DEBUG\ANIMATIONMODULE.OBJ|C:\USERS\FEAN-DEV\DROPBOX\FEANWORK\FEANWORK\DEBUG\ANIMATIONPARSER.OBJ|C:\USERS\FEAN-DEV\DROPBOX\FEANWORK\FEANWORK\DEBUG\CAMERA.OBJ|C:\USERS\FEAN-DEV\DROPBOX\FEANWORK\FEANWORK\DEBUG\CONFIGPARSER.OBJ|C:\USERS\FEAN-DEV\DROPBOX\FEANWORK\FEANWORK\DEBUG\CONTAINER.OBJ|C:\USERS\FEAN-DEV\DROPBOX\FEANWORK\FEANWORK\DEBUG\CONTROLBASE.OBJ|C:\USERS\FEAN-DEV\DROPBOX\FEANWORK\FEANWORK\DEBUG\DIRECTORY.OBJ|C:\USERS\FEAN-DEV\DROPBOX\FEANWORK\FEANWORK\DEBUG\DROPCONTROL.OBJ|C:\USERS\FEAN-DEV\DROPBOX\FEANWORK\FEANWORK\DEBUG\EMITTERMODULE.OBJ|C:\USERS\FEAN-DEV\DROPBOX\FEANWORK\FEANWORK\DEBUG\ENTITY.OBJ|C:\USERS\FEAN-DEV\DROPBOX\FEANWORK\FEANWORK\DEBUG\EVENTLISTENER.OBJ|C:\USERS\FEAN-DEV\DROPBOX\FEANWORK\FEANWORK\DEBUG\FEANRANDOM.OBJ|C:\USERS\FEAN-DEV\DROPBOX\FEANWORK\FEANWORK\DEBUG\FEANWORK.OBJ|C:\USERS\FEAN-DEV\DROPBOX\FEANWORK\FEANWORK\DEBUG\FIELDCONTROL.OBJ|C:\USERS\FEAN-DEV\DROPBOX\FEANWORK\FEANWORK\DEBUG\GAMECONSOLE.OBJ|C:\USERS\FEAN-DEV\DROPBOX\FEANWORK\FEANWORK\DEBUG\GRID.OBJ|C:\USERS\FEAN-DEV\DROPBOX\FEANWORK\FEANWORK\DEBUG\INPUTHANDLER.OBJ|C:\USERS\FEAN-DEV\DROPBOX\FEANWORK\FEANWORK\DEBUG\INTELLIGENCEMODULE.OBJ|C:\USERS\FEAN-DEV\DROPBOX\FEANWORK\FEANWORK\DEBUG\INTERFACECONTROLLER.OBJ|C:\USERS\FEAN-DEV\DROPBOX\FEANWORK\FEANWORK\DEBUG\INTERVAL.OBJ|C:\USERS\FEAN-DEV\DROPBOX\FEANWORK\FEANWORK\DEBUG\LABELCONTROL.OBJ|C:\USERS\FEAN-DEV\DROPBOX\FEANWORK\FEANWORK\DEBUG\LAYER.OBJ|C:\USERS\FEAN-DEV\DROPBOX\FEANWORK\FEANWORK\DEBUG\LEVELPARSER.OBJ|C:\USERS\FEAN-DEV\DROPBOX\FEANWORK\FEANWORK\DEBUG\LIGHT.OBJ|C:\USERS\FEAN-DEV\DROPBOX\FEANWORK\FEANWORK\DEBUG\LIGHTMANAGER.OBJ|C:\USERS\FEAN-DEV\DROPBOX\FEANWORK\FEANWORK\DEBUG\MEMORYTRACKER.OBJ|C:\USERS\FEAN-DEV\DROPBOX\FEANWORK\FEANWORK\DEBUG\MODULE.OBJ|C:\USERS\FEAN-DEV\DROPBOX\FEANWORK\FEANWORK\DEBUG\NETWORK.OBJ|C:\USERS\FEAN-DEV\DROPBOX\FEANWORK\FEANWORK\DEBUG\PARSER.OBJ|C:\USERS\FEAN-DEV\DROPBOX\FEANWORK\FEANWORK\DEBUG\PHYSICSMODULE.OBJ|C:\USERS\FEAN-DEV\DROPBOX\FEANWORK\FEANWORK\DEBUG\POINTLIGHT.OBJ|C:\USERS\FEAN-DEV\DROPBOX\FEANWORK\FEANWORK\DEBUG\PREFABPARSER.OBJ|C:\USERS\FEAN-DEV\DROPBOX\FEANWORK\FEANWORK\DEBUG\PROGRESSCONTROL.OBJ|C:\USERS\FEAN-DEV\DROPBOX\FEANWORK\FEANWORK\DEBUG\QUADTREE.OBJ|C:\USERS\FEAN-DEV\DROPBOX\FEANWORK\FEANWORK\DEBUG\RENDERMODULE.OBJ|C:\USERS\FEAN-DEV\DROPBOX\FEANWORK\FEANWORK\DEBUG\RESOURCECACHE.OBJ|C:\USERS\FEAN-DEV\DROPBOX\FEANWORK\FEANWORK\DEBUG\SCENE.OBJ|C:\USERS\FEAN-DEV\DROPBOX\FEANWORK\FEANWORK\DEBUG\SCENEMANAGER.OBJ|C:\USERS\FEAN-DEV\DROPBOX\FEANWORK\FEANWORK\DEBUG\SCRIPTPARSER.OBJ|C:\USERS\FEAN-DEV\DROPBOX\FEANWORK\FEANWORK\DEBUG\SCROLLCONTROL.OBJ|C:\USERS\FEAN-DEV\DROPBOX\FEANWORK\FEANWORK\DEBUG\SELECTIONCONTROL.OBJ|C:\USERS\FEAN-DEV\DROPBOX\FEANWORK\FEANWORK\DEBUG\SOUNDMANAGER.OBJ|C:\USERS\FEAN-DEV\DROPBOX\FEANWORK\FEANWORK\DEBUG\SOUNDMODULE.OBJ|C:\USERS\FEAN-DEV\DROPBOX\FEANWORK\FEANWORK\DEBUG\SPATIALBASE.OBJ|C:\USERS\FEAN-DEV\DROPBOX\FEANWORK\FEANWORK\DEBUG\TIMER.OBJ|C:\USERS\FEAN-DEV\DROPBOX\FEANWORK\FEANWORK\DEBUG\TOGGLECONTROL.OBJ|C:\USERS\FEAN-DEV\DROPBOX\FEANWORK\FEANWORK\DEBUG\TOOLTIPCONTROL.OBJ|C:\USERS\FEAN-DEV\DROPBOX\FEANWORK\FEANWORK\DEBUG\VECTORIAL.OBJ|C:\USERS\FEAN-DEV\DROPBOX\FEANWORK\FEANWORK\DEBUG\WATER.OBJ
C:\USERS\FEAN-DEV\DROPBOX\FEANWORK\LIB\DEBUG\SFML-GRAPHICS-D.LIB
C:\USERS\FEAN-DEV\DROPBOX\FEANWORK\LIB\DEBUG\SFML-WINDOW-D.LIB
C:\USERS\FEAN-DEV\DROPBOX\FEANWORK\LIB\DEBUG\SFML-SYSTEM-D.LIB
C:\USERS\FEAN-DEV\DROPBOX\FEANWORK\LIB\DEBUG\SFML-AUDIO-D.LIB
C:\USERS\FEAN-DEV\DROPBOX\FEANWORK\LIB\DEBUG\SFML-NETWORK-D.LIB
C:\PROGRAM FILES (X86)\WINDOWS KITS\8.1\LIB\WINV6.3\UM\X86\KERNEL32.LIB
C:\PROGRAM FILES (X86)\WINDOWS KITS\8.1\LIB\WINV6.3\UM\X86\USER32.LIB
C:\PROGRAM FILES (X86)\WINDOWS KITS\8.1\LIB\WINV6.3\UM\X86\GDI32.LIB
C:\PROGRAM FILES (X86)\WINDOWS KITS\8.1\LIB\WINV6.3\UM\X86\WINSPOOL.LIB
C:\PROGRAM FILES (X86)\WINDOWS KITS\8.1\LIB\WINV6.3\UM\X86\COMDLG32.LIB
C:\PROGRAM FILES (X86)\WINDOWS KITS\8.1\LIB\WINV6.3\UM\X86\ADVAPI32.LIB
C:\PROGRAM FILES (X86)\WINDOWS KITS\8.1\LIB\WINV6.3\UM\X86\SHELL32.LIB
C:\PROGRAM FILES (X86)\WINDOWS KITS\8.1\LIB\WINV6.3\UM\X86\OLE32.LIB
C:\PROGRAM FILES (X86)\WINDOWS KITS\8.1\LIB\WINV6.3\UM\X86\OLEAUT32.LIB
C:\PROGRAM FILES (X86)\WINDOWS KITS\8.1\LIB\WINV6.3\UM\X86\UUID.LIB
C:\PROGRAM FILES (X86)\WINDOWS KITS\8.1\LIB\WINV6.3\UM\X86\ODBC32.LIB
C:\PROGRAM FILES (X86)\WINDOWS KITS\8.1\LIB\WINV6.3\UM\X86\ODBCCP32.LIB
C:\USERS\FEAN-DEV\DROPBOX\FEANWORK\FEANWORK\DEBUG\CAMERA.OBJ
C:\USERS\FEAN-DEV\DROPBOX\FEANWORK\FEANWORK\DEBUG\DIRECTORY.OBJ
C:\USERS\FEAN-DEV\DROPBOX\FEANWORK\FEANWORK\DEBUG\ENTITY.OBJ
C:\USERS\FEAN-DEV\DROPBOX\FEANWORK\FEANWORK\DEBUG\EVENTLISTENER.OBJ
C:\USERS\FEAN-DEV\DROPBOX\FEANWORK\FEANWORK\DEBUG\WATER.OBJ
C:\USERS\FEAN-DEV\DROPBOX\FEANWORK\FEANWORK\DEBUG\FEANWORK.OBJ
C:\USERS\FEAN-DEV\DROPBOX\FEANWORK\FEANWORK\DEBUG\GAMECONSOLE.OBJ
C:\USERS\FEAN-DEV\DROPBOX\FEANWORK\FEANWORK\DEBUG\INPUTHANDLER.OBJ
C:\USERS\FEAN-DEV\DROPBOX\FEANWORK\FEANWORK\DEBUG\CONTAINER.OBJ
C:\USERS\FEAN-DEV\DROPBOX\FEANWORK\FEANWORK\DEBUG\CONTROLBASE.OBJ
C:\USERS\FEAN-DEV\DROPBOX\FEANWORK\FEANWORK\DEBUG\DROPCONTROL.OBJ
C:\USERS\FEAN-DEV\DROPBOX\FEANWORK\FEANWORK\DEBUG\FIELDCONTROL.OBJ
C:\USERS\FEAN-DEV\DROPBOX\FEANWORK\FEANWORK\DEBUG\INTERFACECONTROLLER.OBJ
C:\USERS\FEAN-DEV\DROPBOX\FEANWORK\FEANWORK\DEBUG\LABELCONTROL.OBJ
C:\USERS\FEAN-DEV\DROPBOX\FEANWORK\FEANWORK\DEBUG\PROGRESSCONTROL.OBJ
C:\USERS\FEAN-DEV\DROPBOX\FEANWORK\FEANWORK\DEBUG\SCROLLCONTROL.OBJ
C:\USERS\FEAN-DEV\DROPBOX\FEANWORK\FEANWORK\DEBUG\SELECTIONCONTROL.OBJ
C:\USERS\FEAN-DEV\DROPBOX\FEANWORK\FEANWORK\DEBUG\TOGGLECONTROL.OBJ
C:\USERS\FEAN-DEV\DROPBOX\FEANWORK\FEANWORK\DEBUG\TOOLTIPCONTROL.OBJ
C:\USERS\FEAN-DEV\DROPBOX\FEANWORK\FEANWORK\DEBUG\LAYER.OBJ
C:\USERS\FEAN-DEV\DROPBOX\FEANWORK\FEANWORK\DEBUG\LIGHT.OBJ
C:\USERS\FEAN-DEV\DROPBOX\FEANWORK\FEANWORK\DEBUG\LIGHTMANAGER.OBJ
C:\USERS\FEAN-DEV\DROPBOX\FEANWORK\FEANWORK\DEBUG\POINTLIGHT.OBJ
C:\USERS\FEAN-DEV\DROPBOX\FEANWORK\FEANWORK\DEBUG\ANIMATIONMODULE.OBJ
C:\USERS\FEAN-DEV\DROPBOX\FEANWORK\FEANWORK\DEBUG\EMITTERMODULE.OBJ
C:\USERS\FEAN-DEV\DROPBOX\FEANWORK\FEANWORK\DEBUG\INTELLIGENCEMODULE.OBJ
C:\USERS\FEAN-DEV\DROPBOX\FEANWORK\FEANWORK\DEBUG\MODULE.OBJ
C:\USERS\FEAN-DEV\DROPBOX\FEANWORK\FEANWORK\DEBUG\PHYSICSMODULE.OBJ
C:\USERS\FEAN-DEV\DROPBOX\FEANWORK\FEANWORK\DEBUG\RENDERMODULE.OBJ
C:\USERS\FEAN-DEV\DROPBOX\FEANWORK\FEANWORK\DEBUG\SOUNDMODULE.OBJ
C:\USERS\FEAN-DEV\DROPBOX\FEANWORK\FEANWORK\DEBUG\NETWORK.OBJ
C:\USERS\FEAN-DEV\DROPBOX\FEANWORK\FEANWORK\DEBUG\ANIMATIONPARSER.OBJ
C:\USERS\FEAN-DEV\DROPBOX\FEANWORK\FEANWORK\DEBUG\CONFIGPARSER.OBJ
C:\USERS\FEAN-DEV\DROPBOX\FEANWORK\FEANWORK\DEBUG\LEVELPARSER.OBJ
C:\USERS\FEAN-DEV\DROPBOX\FEANWORK\FEANWORK\DEBUG\PARSER.OBJ
C:\USERS\FEAN-DEV\DROPBOX\FEANWORK\FEANWORK\DEBUG\PREFABPARSER.OBJ
C:\USERS\FEAN-DEV\DROPBOX\FEANWORK\FEANWORK\DEBUG\SCRIPTPARSER.OBJ
C:\USERS\FEAN-DEV\DROPBOX\FEANWORK\FEANWORK\DEBUG\RESOURCECACHE.OBJ
C:\USERS\FEAN-DEV\DROPBOX\FEANWORK\FEANWORK\DEBUG\SCENE.OBJ
C:\USERS\FEAN-DEV\DROPBOX\FEANWORK\FEANWORK\DEBUG\SCENEMANAGER.OBJ
C:\USERS\FEAN-DEV\DROPBOX\FEANWORK\FEANWORK\DEBUG\SOUNDMANAGER.OBJ
C:\USERS\FEAN-DEV\DROPBOX\FEANWORK\FEANWORK\DEBUG\GRID.OBJ
C:\USERS\FEAN-DEV\DROPBOX\FEANWORK\FEANWORK\DEBUG\QUADTREE.OBJ
C:\USERS\FEAN-DEV\DROPBOX\FEANWORK\FEANWORK\DEBUG\SPATIALBASE.OBJ
C:\USERS\FEAN-DEV\DROPBOX\FEANWORK\FEANWORK\DEBUG\FEANRANDOM.OBJ
C:\USERS\FEAN-DEV\DROPBOX\FEANWORK\FEANWORK\DEBUG\INTERVAL.OBJ
C:\USERS\FEAN-DEV\DROPBOX\FEANWORK\FEANWORK\DEBUG\MEMORYTRACKER.OBJ
C:\USERS\FEAN-DEV\DROPBOX\FEANWORK\FEANWORK\DEBUG\TIMER.OBJ
C:\USERS\FEAN-DEV\DROPBOX\FEANWORK\FEANWORK\DEBUG\VECTORIAL.OBJ
C:\WINDOWS\SYSTEM32\TZRES.DLL
C:\WINDOWS\GLOBALIZATION\SORTING\SORTDEFAULT.NLS
C:\PROGRAM FILES (X86)\MICROSOFT VISUAL STUDIO 12.0\VC\LIB\MSVCPRTD.LIB
C:\PROGRAM FILES (X86)\MICROSOFT VISUAL STUDIO 12.0\VC\LIB\MSVCRTD.LIB
C:\PROGRAM FILES (X86)\MICROSOFT VISUAL STUDIO 12.0\VC\LIB\OLDNAMES.LIB
